// Jest Snapshot v1, https://goo.gl/fbAQLP

exports[`InformationField Component renders without crashing 1`] = `
<div>
  <h5
    className="display--block mgB"
  >
    Name
  </h5>
  <span
    className=""
    style={undefined}
  >
    John Doe
  </span>
</div>
`;
