// Jest Snapshot v1, https://goo.gl/fbAQLP

exports[`Dropdown Component renders without crashing 1`] = `
<div
  className="dropdown   dropdown--left"
>
  <button
    aria-expanded={false}
    aria-haspopup="true"
    className="dropdown__toggle "
    data-toggle="dropdown"
    id="dropdownMenuButton"
    onClick={[Function]}
    type="button"
  >
    <div>
      <i
        className="mdi mdi-menu-down"
      />
    </div>
  </button>
  <div
    aria-labelledby="dropdownMenuButton"
    className="dropdown__menu"
  >
    <div
      className="dropdown__arrow"
    />
    <ul
      className="dropdown__list"
    >
      <li>
        Option 1
      </li>
      <li>
        Option 2
      </li>
      <li>
        Option 3
      </li>
      <li>
        Option 4
      </li>
    </ul>
  </div>
</div>
`;
